{"lastPage":false,"pageNumber":0,"totalPages":17,"totalResults":164,"pageContent":[{"transactionType":"SALES","businessDayUtc":"2019-10-25T00:00:00Z","employeeIds":["233"],"employeeNames":["Freda Auer"],"destinationAccount":null,"endTransactionDateTimeUtc":"2019-10-25T15:10:07Z","closeDateTimeUtc":"2019-10-25T15:10:07Z","grandAmount":73.9000000000,"sourceAccount":null,"siteInfoId":"6","tlogId":"61971e2adf6245579adba824c051b823-20191025-1048731","touchPointId":"1","isTrainingMode":false,"transactionNumber":"1048731","isVoided":false,"itemCount":7,"transactionCategory":"SALE_OR_RETURN"},{"transactionType":"SALES","businessDayUtc":"2019-10-25T00:00:00Z","employeeIds":["2660"],"employeeNames":["Avis Block"],"destinationAccount":null,"endTransactionDateTimeUtc":"2019-10-25T15:02:45Z","closeDateTimeUtc":"2019-10-25T15:02:45Z","grandAmount":15.2500000000,"sourceAccount":null,"siteInfoId":"6","tlogId":"61971e2adf6245579adba824c051b823-20191025-3145730","touchPointId":"3","isTrainingMode":false,"transactionNumber":"3145730","isVoided":false,"itemCount":2,"transactionCategory":"SALE_OR_RETURN"},{"transactionType":"SALES","businessDayUtc":"2019-10-25T00:00:00Z","employeeIds":["233"],"employeeNames":["Freda Auer"],"destinationAccount":null,"endTransactionDateTimeUtc":"2019-10-25T14:58:48Z","closeDateTimeUtc":"2019-10-25T14:58:48Z","grandAmount":28.3100000000,"sourceAccount":null,"siteInfoId":"6","tlogId":"61971e2adf6245579adba824c051b823-20191025-1048734","touchPointId":"1","isTrainingMode":false,"transactionNumber":"1048734","isVoided":false,"itemCount":3,"transactionCategory":"SALE_OR_RETURN"},{"transactionType":"SALES","businessDayUtc":"2019-10-25T00:00:00Z","employeeIds":["2660"],"employeeNames":["Avis Block"],"destinationAccount":null,"endTransactionDateTimeUtc":"2019-10-25T14:54:46Z","closeDateTimeUtc":"2019-10-25T14:54:46Z","grandAmount":103.0900000000,"sourceAccount":null,"siteInfoId":"6","tlogId":"61971e2adf6245579adba824c051b823-20191025-6291475","touchPointId":"2","isTrainingMode":false,"transactionNumber":"6291475","isVoided":false,"itemCount":8,"transactionCategory":"SALE_OR_RETURN"},{"transactionType":"SALES","businessDayUtc":"2019-10-25T00:00:00Z","employeeIds":["2660"],"employeeNames":["Avis Block"],"destinationAccount":null,"endTransactionDateTimeUtc":"2019-10-25T14:54:43Z","closeDateTimeUtc":"2019-10-25T14:54:43Z","grandAmount":83.8500000000,"sourceAccount":null,"siteInfoId":"6","tlogId":"61971e2adf6245579adba824c051b823-20191025-2097207","touchPointId":"2","isTrainingMode":false,"transactionNumber":"2097207","isVoided":false,"itemCount":10,"transactionCategory":"SALE_OR_RETURN"},{"transactionType":"SALES","businessDayUtc":"2019-10-25T00:00:00Z","employeeIds":["2660"],"employeeNames":["Avis Block"],"destinationAccount":null,"endTransactionDateTimeUtc":"2019-10-25T14:54:40Z","closeDateTimeUtc":"2019-10-25T14:54:40Z","grandAmount":73.1800000000,"sourceAccount":null,"siteInfoId":"6","tlogId":"61971e2adf6245579adba824c051b823-20191025-6291482","touchPointId":"2","isTrainingMode":false,"transactionNumber":"6291482","isVoided":false,"itemCount":5,"transactionCategory":"SALE_OR_RETURN"},{"transactionType":"SALES","businessDayUtc":"2019-10-25T00:00:00Z","employeeIds":["2660"],"employeeNames":["Avis Block"],"destinationAccount":null,"endTransactionDateTimeUtc":"2019-10-25T14:54:38Z","closeDateTimeUtc":"2019-10-25T14:54:38Z","grandAmount":624.5400000000,"sourceAccount":null,"siteInfoId":"6","tlogId":"61971e2adf6245579adba824c051b823-20191025-2097187","touchPointId":"2","isTrainingMode":false,"transactionNumber":"2097187","isVoided":false,"itemCount":31,"transactionCategory":"SALE_OR_RETURN"},{"transactionType":"SALES","businessDayUtc":"2019-10-25T00:00:00Z","employeeIds":["2660"],"employeeNames":["Avis Block"],"destinationAccount":null,"endTransactionDateTimeUtc":"2019-10-25T14:54:36Z","closeDateTimeUtc":"2019-10-25T14:54:36Z","grandAmount":223.9700000000,"sourceAccount":null,"siteInfoId":"6","tlogId":"61971e2adf6245579adba824c051b823-20191025-2097172","touchPointId":"2","isTrainingMode":false,"transactionNumber":"2097172","isVoided":false,"itemCount":16,"transactionCategory":"SALE_OR_RETURN"},{"transactionType":"SALES","businessDayUtc":"2019-10-25T00:00:00Z","employeeIds":["233"],"employeeNames":["Freda Auer"],"destinationAccount":null,"endTransactionDateTimeUtc":"2019-10-25T14:45:37Z","closeDateTimeUtc":"2019-10-25T14:45:37Z","grandAmount":164.3600000000,"sourceAccount":null,"siteInfoId":"6","tlogId":"61971e2adf6245579adba824c051b823-20191025-1048661","touchPointId":"1","isTrainingMode":false,"transactionNumber":"1048661","isVoided":false,"itemCount":13,"transactionCategory":"SALE_OR_RETURN"},{"transactionType":"SALES","businessDayUtc":"2019-10-25T00:00:00Z","employeeIds":["4124"],"employeeNames":["Gabriella Bauch"],"destinationAccount":null,"endTransactionDateTimeUtc":"2019-10-25T14:43:43Z","closeDateTimeUtc":"2019-10-25T14:43:43Z","grandAmount":150.3600000000,"sourceAccount":null,"siteInfoId":"6","tlogId":"61971e2adf6245579adba824c051b823-20191025-2097206","touchPointId":"5","isTrainingMode":false,"transactionNumber":"2097206","isVoided":false,"itemCount":12,"transactionCategory":"SALE_OR_RETURN"}]}